<svg width="12" height="13" viewBox="0 0 12 13" fill="none" xmlns="http://www.w3.org/2000/svg">
<path d="M8.8414 1.47278H3.75986C2.35663 1.47278 1.21909 2.61032 1.21909 4.01355V9.09509C1.21909 10.4983 2.35663 11.6359 3.75986 11.6359H8.8414C10.2446 11.6359 11.3822 10.4983 11.3822 9.09509V4.01355C11.3822 2.61032 10.2446 1.47278 8.8414 1.47278Z" stroke="white" stroke-linecap="round" stroke-linejoin="round"/>
<path d="M8.33265 6.23459C8.39536 6.6575 8.32312 7.08942 8.12622 7.4689C7.92931 7.84839 7.61775 8.15613 7.23586 8.34835C6.85397 8.54056 6.4212 8.60747 5.9991 8.53954C5.57699 8.47162 5.18705 8.27233 4.88474 7.97002C4.58243 7.66771 4.38314 7.27777 4.31522 6.85566C4.24729 6.43356 4.3142 6.00079 4.50641 5.6189C4.69863 5.23701 5.00637 4.92545 5.38585 4.72854C5.76534 4.53163 6.19726 4.4594 6.62017 4.52211C7.05155 4.58608 7.45093 4.78709 7.7593 5.09546C8.06766 5.40383 8.26868 5.80321 8.33265 6.23459Z" stroke="white" stroke-linecap="round" stroke-linejoin="round"/>
<path d="M9.09506 3.75989H9.10018" stroke="white" stroke-linecap="round" stroke-linejoin="round"/>
</svg>
